MAQ_1,MAQ_2,MAQ_3,MAQ_4,MAQ,BMQ_N,BMQ_C,BMQ_Diff
0,0,0,1,1,20,13,7
1,1,0,0,2,19,12,7
0,0,1,0,1,17,13,4
1,0,0,0,1,23,12,11
0,0,0,1,1,18,16,2
0,0,0,0,0,23,15,8
1,1,0,0,2,22,6,16
1,0,0,0,1,15,19,-4
0,0,0,0,0,25,18,7
0,0,1,1,2,12,15,-3
0,0,0,1,1,20,14,6
0,0,0,0,0,25,11,14
0,0,0,0,0,20,10,10
1,1,0,0,2,24,15,9
1,1,0,0,2,20,12,8
1,0,0,0,1,16,15,1
1,0,0,0,1,14,11,3
0,0,0,0,0,21,13,8
0,0,1,0,1,14,9,5
1,1,1,0,3,18,17,1
1,1,0,0,2,21,18,3
0,0,1,0,1,18,10,8
1,1,0,0,2,20,12,8
0,0,0,0,0,24,7,17
1,0,0,0,1,21,10,11
1,0,0,1,2,18,14,4
0,0,0,0,0,23,12,11
0,0,0,0,0,14,11,3
1,0,0,0,1,24,21,3
1,0,0,0,1,22,15,7
1,0,0,0,1,16,16,0
1,0,0,1,2,16,12,4
0,0,0,1,1,20,9,11
0,0,1,1,2,18,12,6
0,0,0,0,0,18,12,6
0,1,0,0,1,22,9,13
1,0,0,0,1,22,18,4
1,0,0,0,1,18,12,6
1,0,0,0,1,22,10,12
1,0,0,0,1,21,16,5
0,0,0,0,0,17,10,7
1,1,1,1,4,20,20,0
1,1,0,0,2,21,10,11
0,1,0,0,1,16,9,7
1,0,0,0,1,19,7,12
0,1,0,0,1,19,15,4
0,1,0,0,1,25,17,8
0,0,0,1,1,18,14,4
1,1,0,0,2,16,14,2
1,0,0,0,1,20,12,8
1,0,0,0,1,17,12,5
1,0,0,0,1,16,8,8
1,0,0,0,1,17,8,9
1,0,1,0,2,17,13,4
0,0,0,0,0,25,13,12
1,1,1,0,3,19,12,7
0,0,0,1,1,25,25,0
1,0,0,0,1,16,13,3
0,0,1,1,2,14,15,-1
0,0,0,1,1,18,10,8
0,0,1,0,1,20,17,3
0,0,0,0,0,18,10,8
0,0,0,0,0,18,13,5
1,0,0,1,2,18,19,-1
1,0,0,0,1,19,10,9
1,1,1,1,4,24,24,0
1,1,0,0,2,17,14,3
1,0,0,0,1,18,10,8
1,0,0,0,1,25,10,15
1,0,0,0,1,11,11,0
1,0,0,0,1,21,7,14
1,0,0,0,1,20,16,4
0,0,0,0,0,21,12,9
0,0,0,0,0,20,12,8
1,1,1,0,3,23,14,9
0,1,0,0,1,18,16,2
1,0,0,0,1,18,10,8
1,1,0,0,2,18,7,11
1,0,0,0,1,17,9,8
0,1,1,1,3,15,18,-3
0,0,0,1,1,21,9,12
1,1,0,0,2,24,9,15
1,1,0,0,2,25,15,10
1,0,0,0,1,21,19,2
1,0,0,0,1,18,11,7
1,0,1,0,2,19,10,9
1,0,0,0,1,22,9,13
0,0,0,0,0,25,6,19
1,0,0,0,1,22,14,8
1,0,0,0,1,24,14,10
1,1,0,0,2,16,15,1
1,1,1,0,3,17,16,1
1,0,0,0,1,18,17,1
1,0,1,1,3,25,14,11
1,0,0,0,1,23,11,12
1,0,0,0,1,22,9,13
1,1,0,0,2,16,12,4
0,1,0,1,2,20,11,9
0,0,0,0,0,25,13,12
0,0,0,0,0,22,5,17
1,0,1,1,3,21,13,8
1,1,0,0,2,16,12,4
1,1,0,0,2,20,13,7
1,0,0,0,1,14,11,3
0,0,0,0,0,21,10,11
1,0,0,0,1,20,19,1
0,0,0,0,0,9,10,-1
1,0,0,0,1,22,15,7
1,0,1,0,2,18,12,6
1,1,1,0,3,7,9,-2
0,0,1,1,2,21,14,7
0,0,0,0,0,20,10,10
0,0,0,0,0,18,10,8
0,0,1,0,1,22,9,13
1,1,0,0,2,15,15,0
1,1,0,0,2,11,14,-3
0,0,0,0,0,22,10,12
0,0,0,0,0,25,14,11
0,0,0,0,0,5,10,-5
0,0,0,1,1,23,15,8