baseline,end,group
1,1,I
3,1,I
0,1,I
1,2,I
1,2,I
2,0,I
1,0,I
3,0,I
1,0,I
3,1,I
1,1,I
2,2,I
4,0,I
1,2,I
2,1,I
0,2,I
3,0,I
1,1,I
3,1,I
2,0,I
2,0,I
0,1,I
2,1,I
4,0,I
1,1,I
1,0,I
2,2,I
1,0,I
0,1,I
2,0,I
0,0,I
1,1,I
1,0,I
2,0,I
3,2,I
1,0,I
1,1,I
3,1,I
2,1,I
3,0,I
2,0,I
2,0,I
1,0,I
0,2,I
1,0,I
1,1,I
0,2,I
1,0,I
3,1,I
0,1,I
1,1,I
2,1,I
1,1,I
2,3,I
4,1,I
2,1,I
1,0,I
3,1,I
2,0,I
1,0,I
1,3,C
0,3,C
2,1,C
0,1,C
2,1,C
2,3,C
0,0,C
2,1,C
3,3,C
2,2,C
2,1,C
1,0,C
2,3,C
3,0,C
0,3,C
4,2,C
1,2,C
2,2,C
2,1,C
1,1,C
3,2,C
2,3,C
1,1,C
3,2,C
1,3,C
3,1,C
2,1,C
2,1,C
4,0,C
0,2,C
1,2,C
2,2,C
1,0,C
0,2,C
2,2,C
0,1,C
4,0,C
1,3,C
1,1,C
2,3,C
4,2,C
2,1,C
1,0,C
1,0,C
1,1,C
2,1,C
1,3,C
3,1,C
2,1,C
2,2,C
0,0,C
0,2,C
1,1,C
2,2,C
1,2,C
1,0,C
1,2,C
1,1,C
2,1,C
3,1,C